{
    "prepare_queue": {
        "installed": [],
        "uninstalled": []
    },
    "config_munge": {
        "files": {}
    },
    "installed_plugins": {
        "cordova-plugin-battery-status": {
            "PACKAGE_NAME": "com.phonegap.calendariopilsen"
        },
        "cordova-plugin-camera": {
            "PACKAGE_NAME": "com.phonegap.calendariopilsen"
        },
        "cordova-plugin-media-capture": {
            "PACKAGE_NAME": "com.phonegap.calendariopilsen"
        },
        "cordova-plugin-console": {
            "PACKAGE_NAME": "com.phonegap.calendariopilsen"
        },
        "cordova-plugin-contacts": {
            "PACKAGE_NAME": "com.phonegap.calendariopilsen"
        },
        "cordova-plugin-device": {
            "PACKAGE_NAME": "com.phonegap.calendariopilsen"
        },
        "cordova-plugin-device-motion": {
            "PACKAGE_NAME": "com.phonegap.calendariopilsen"
        },
        "cordova-plugin-device-orientation": {
            "PACKAGE_NAME": "com.phonegap.calendariopilsen"
        },
        "cordova-plugin-dialogs": {
            "PACKAGE_NAME": "com.phonegap.calendariopilsen"
        },
        "cordova-plugin-file-transfer": {
            "PACKAGE_NAME": "com.phonegap.calendariopilsen"
        },
        "cordova-plugin-geolocation": {
            "PACKAGE_NAME": "com.phonegap.calendariopilsen"
        },
        "cordova-plugin-globalization": {
            "PACKAGE_NAME": "com.phonegap.calendariopilsen"
        },
        "cordova-plugin-inappbrowser": {
            "PACKAGE_NAME": "com.phonegap.calendariopilsen"
        },
        "cordova-plugin-media": {
            "PACKAGE_NAME": "com.phonegap.calendariopilsen"
        },
        "cordova-plugin-network-information": {
            "PACKAGE_NAME": "com.phonegap.calendariopilsen"
        },
        "cordova-plugin-splashscreen": {
            "PACKAGE_NAME": "com.phonegap.calendariopilsen"
        },
        "cordova-plugin-statusbar": {
            "PACKAGE_NAME": "com.phonegap.calendariopilsen"
        },
        "cordova-plugin-vibration": {
            "PACKAGE_NAME": "com.phonegap.calendariopilsen"
        },
        "cordova-plugin-whitelist": {
            "PACKAGE_NAME": "com.phonegap.calendariopilsen"
        },
        "org.nypr.cordova.wakeupplugin": {
            "PACKAGE_NAME": "com.phonegap.calendariopilsen"
        },
        "com.guinatal.refreshgallery": {
            "PACKAGE_NAME": "com.phonegap.calendariopilsen"
        },
        "cordova-plugin-datepicker": {
            "PACKAGE_NAME": "com.phonegap.calendariopilsen"
        },
        "cordova-plugin-nativeaudio": {
            "PACKAGE_NAME": "com.phonegap.calendariopilsen"
        },
        "de.appplant.cordova.plugin.local-notification": {
            "PACKAGE_NAME": "com.phonegap.calendariopilsen"
        },
        "com.cmackay.plugins.googleanalytics": {
            "PACKAGE_NAME": "com.phonegap.calendariopilsen"
        },
        "cordova-plugin-x-socialsharing": {
            "PACKAGE_NAME": "com.phonegap.calendariopilsen"
        }
    },
    "dependent_plugins": {
        "cordova-plugin-file": {
            "PACKAGE_NAME": "com.phonegap.calendariopilsen"
        },
        "cordova-plugin-app-event": {
            "PACKAGE_NAME": "com.phonegap.calendariopilsen"
        }
    }
}